…
print(process_data(all_data, "rapi"))
```

</details>

    # A tibble: 71 × 4
    # Groups:   sampleid, sampleid_percent [71]
       sampleid sampleid_percent phase_length mean_avbias
          <dbl>            <dbl>        <int>       <dbl>
     1        1             0.01          766        57.9
     2        2             0.02          268       -39.3
     3        3             0.03          263       -18.6
     4        4             0.04          540        29.4
     5        5             0.05          168        57.0
     6        6             0.06          102        90  
     7        8             0.08          110        13  
     8       10             0.1            72       -37  
     9       11             0.11           98        13  
    10       12             0.12           45       -89  
    # ℹ 61 more rows
…
